results/UART/sim/uart_tb.vcd
$date
	Fri Mar 27 00:51:59 2026
$end
$version
	Icarus Verilog
$end
$timescale
	1ps
$end
$scope module tb_logic_analyzer $end
$var wire 1 ! tx_start $end
$var wire 8 " tx_data [7:0] $end
$var reg 1 # clk $end
$var reg 8 $ probes [7:0] $end
$var reg 1 % rst $end
$var reg 1 & trigger $end
$scope module uut $end
$var wire 1 # clk $end
$var wire 8 ' probe_pins [7:0] $end
$var wire 1 % rst $end
$var wire 1 & trigger_pin $end
$var wire 1 ( tx_ready $end
$var parameter 32 ) DATA_WIDTH $end
$var parameter 2 * IDLE $end
$var parameter 32 + MEM_DEPTH $end
$var parameter 2 , POST_CAPTURE $end
$var parameter 2 - TRANSMIT $end
$var reg 4 . addr_ptr [3:0] $end
$var reg 4 / capture_count [3:0] $end
$var reg 4 0 read_ptr [3:0] $end
$var reg 2 1 state [1:0] $end
$var reg 5 2 transmit_counter [4:0] $end
$var reg 1 3 trigger_prev $end
$var reg 8 4 tx_data [7:0] $end
$var reg 1 ! tx_start $end
$upscope $end
$upscope $end
$enddefinitions $end
$comment Show the parameter values. $end
$dumpall
b10 -
b1 ,
b10000 +
b0 *
b1000 )
$end
#0
$dumpvars
bx 4
x3
bx 2
bx 1
bx 0
bx /
bx .
1(
b0 '
0&
1%
b0 $
0#
bx "
x!
$end
#5000
03
b0 "
b0 4
0!
b0 /
b0 0
b0 .
b0 1
1#
#10000
0#
#15000
1#
#20000
0#
0%
#25000
b1 .
1#
#30000
0#
#35000
b10 .
1#
#40000
0#
b10100101 $
b10100101 '
#45000
b11 .
1#
#50000
0#
b10111100 $
b10111100 '
#55000
b100 .
1#
#60000
0#
1&
#65000
b1 1
b101 .
13
1#
#70000
0#
b10111101 $
b10111101 '
0&
#75000
b1 /
b110 .
03
1#
#80000
0#
b10111110 $
b10111110 '
#85000
b10 /
b111 .
1#
#90000
0#
b10111111 $
b10111111 '
#95000
b11 /
b1000 .
1#
#100000
0#
b11000000 $
b11000000 '
#105000
b100 /
b1001 .
1#
#110000
0#
b11000001 $
b11000001 '
#115000
b101 /
b1010 .
1#
#120000
0#
b11000010 $
b11000010 '
#125000
b110 /
b1011 .
1#
#130000
0#
b11000011 $
b11000011 '
#135000
b111 /
b1100 .
1#
#140000
0#
b11000100 $
b11000100 '
#145000
b1000 /
b1101 .
1#
#150000
0#
b11000101 $
b11000101 '
#155000
b1001 /
b1110 .
1#
#160000
0#
b11000110 $
b11000110 '
#165000
b1010 /
b1111 .
1#
#170000
0#
b11000111 $
b11000111 '
#175000
b1011 /
b0 .
1#
#180000
0#
b11001000 $
b11001000 '
#185000
b1100 /
b1 .
1#
#190000
0#
b11001001 $
b11001001 '
#195000
b1101 /
b10 .
1#
#200000
0#
b11001010 $
b11001010 '
#205000
b1110 /
b11 .
1#
#210000
0#
b11001011 $
b11001011 '
#215000
b1111 /
b100 .
1#
#220000
0#
b11001100 $
b11001100 '
#225000
b0 2
b101 0
b10 1
b0 /
b101 .
1#
#230000
0#
#235000
1!
b10111101 "
b10111101 4
1#
#240000
0#
#245000
b1 2
b110 0
0!
1#
#250000
0#
#255000
1!
b10111110 "
b10111110 4
1#
#260000
0#
#265000
b10 2
b111 0
0!
1#
#270000
0#
#275000
1!
b10111111 "
b10111111 4
1#
#280000
0#
#285000
b11 2
b1000 0
0!
1#
#290000
0#
#295000
1!
b11000000 "
b11000000 4
1#
#300000
0#
#305000
b100 2
b1001 0
0!
1#
#310000
0#
#315000
1!
b11000001 "
b11000001 4
1#
#320000
0#
#325000
b101 2
b1010 0
0!
1#
#330000
0#
#335000
1!
b11000010 "
b11000010 4
1#
#340000
0#
#345000
b110 2
b1011 0
0!
1#
#350000
0#
#355000
1!
b11000011 "
b11000011 4
1#
#360000
0#
#365000
b111 2
b1100 0
0!
1#
#370000
0#
#375000
1!
b11000100 "
b11000100 4
1#
#380000
0#
#385000
b1000 2
b1101 0
0!
1#
#390000
0#
#395000
1!
b11000101 "
b11000101 4
1#
#400000
0#
#405000
b1001 2
b1110 0
0!
1#
#410000
0#
#415000
1!
b11000110 "
b11000110 4
1#
#420000
0#
#425000
b1010 2
b1111 0
0!
1#
#430000
0#
#435000
1!
b11000111 "
b11000111 4
1#
#440000
0#
#445000
b1011 2
b0 0
0!
1#
#450000
0#
#455000
1!
b11001000 "
b11001000 4
1#
#460000
0#
#465000
b1100 2
b1 0
0!
1#
#470000
0#
#475000
1!
b11001001 "
b11001001 4
1#
#480000
0#
#485000
b1101 2
b10 0
0!
1#
#490000
0#
#495000
1!
b11001010 "
b11001010 4
1#
#500000
0#
#505000
b1110 2
b11 0
0!
1#
#510000
0#
#515000
1!
b11001011 "
b11001011 4
1#
#520000
0#
#525000
b1111 2
b100 0
0!
1#
#530000
0#
#535000
1!
b11001100 "
b11001100 4
1#
#540000
0#
#545000
b0 1
b10000 2
b101 0
0!
1#
#550000
0#
#555000
b110 .
1#
#560000
0#
#565000
b111 .
1#
#570000
0#
#575000
b1000 .
1#
#580000
0#
#585000
b1001 .
1#
#590000
0#
#595000
b1010 .
1#
#600000
0#
#605000
b1011 .
1#
#610000
0#
#615000
b1100 .
1#
#620000
0#
#625000
b1101 .
1#
#630000
0#
#635000
b1110 .
1#
#640000
0#
#645000
b1111 .
1#
#650000
0#
#655000
b0 .
1#
#660000
0#
#665000
b1 .
1#
#670000
0#
#675000
b10 .
1#
#680000
0#
#685000
b11 .
1#
#690000
0#
#695000
b100 .
1#
#700000
0#
#705000
b101 .
1#
#710000
0#
#715000
b110 .
1#
#720000
0#
#725000
b111 .
1#
#730000
0#
#735000
b1000 .
1#
#740000
0#
#745000
b1001 .
1#
#750000
0#
#755000
b1010 .
1#
#760000
0#
#765000
b1011 .
1#
#770000
0#
#775000
b1100 .
1#
#780000
0#
#785000
b1101 .
1#
#790000
0#
#795000
b1110 .
1#
#800000
0#
#805000
b1111 .
1#
#810000
0#
#815000
b0 .
1#
#820000
0#
#825000
b1 .
1#
#830000
0#
#835000
b10 .
1#
#840000
0#
#845000
b11 .
1#
#850000
0#
#855000
b100 .
1#
#860000
0#
#865000
b101 .
1#
#870000
0#
#875000
b110 .
1#
#880000
0#
#885000
b111 .
1#
#890000
0#
#895000
b1000 .
1#
#900000
0#
#905000
b1001 .
1#
#910000
0#
#915000
b1010 .
1#
#920000
0#
#925000
b1011 .
1#
#930000
0#
#935000
b1100 .
1#
#940000
0#
#945000
b1101 .
1#
#950000
0#
#955000
b1110 .
1#
#960000
0#
#965000
b1111 .
1#
#970000
0#
#975000
b0 .
1#
#980000
0#
#985000
b1 .
1#
#990000
0#
#995000
b10 .
1#
#1000000
0#
#1005000
b11 .
1#
#1010000
0#
#1015000
b100 .
1#
#1020000
0#
#1025000
b101 .
1#
#1030000
0#
#1035000
b110 .
1#
#1040000
0#
#1045000
b111 .
1#
#1050000
0#
#1055000
b1000 .
1#
#1060000
0#
#1065000
b1001 .
1#
#1070000
0#
#1075000
b1010 .
1#
#1080000
0#
#1085000
b1011 .
1#
#1090000
0#
#1095000
b1100 .
1#
#1100000
0#
#1105000
b1101 .
1#
#1110000
0#
#1115000
b1110 .
1#
#1120000
0#
#1125000
b1111 .
1#
#1130000
0#
#1135000
b0 .
1#
#1140000
0#
#1145000
b1 .
1#
#1150000
0#
#1155000
b10 .
1#
#1160000
0#
#1165000
b11 .
1#
#1170000
0#
#1175000
b100 .
1#
#1180000
0#
#1185000
b101 .
1#
#1190000
0#
#1195000
b110 .
1#
#1200000
0#
#1205000
b111 .
1#
#1210000
0#
#1215000
b1000 .
1#
#1220000
0#
#1225000
b1001 .
1#
